…
```r
myefa <- fa(Harman74.cor$cov, 4, fm = "wls")
```

```
## Loading required namespace: GPArotation
```

```r
tall.loadings(myefa$Structure)
```

```
## # A tibble: 85 x 3
##    ITEM                  NAME  VALUE
##    <chr>                 <chr> <dbl>
##  1 VisualPerception      WLS1  0.36 
##  2 Cubes                 WLS1  0.24 
##  3 PaperFormBoard        WLS1  0.290
##  4 Flags                 WLS1  0.37 
##  5 GeneralInformation    WLS1  0.79 
##  6 PargraphComprehension WLS1  0.82 
##  7 SentenceCompletion    WLS1  0.84 
##  8 WordClassification    WLS1  0.68 
##  9 WordMeaning           WLS1  0.86 
## 10 Addition              WLS1  0.28 
## # ... with 75 more rows
```

```r
tall.loadings(myefa$loadings)
```

```
## # A tibble: 38 x 3
##    ITEM                  NAME  VALUE
##    <chr>                 <chr> <dbl>
##  1 GeneralInformation    WLS1  0.76 
##  2 PargraphComprehension WLS1  0.8  
##  3 SentenceCompletion    WLS1  0.87 
##  4 WordClassification    WLS1  0.56 
##  5 WordMeaning           WLS1  0.86 
##  6 Deduction             WLS1  0.33 
##  7 ProblemReasoning      WLS1  0.31 
##  8 SeriesCompletion      WLS1  0.3  
##  9 ArithmeticProblems    WLS1  0.290
## 10 Addition              WLS2  0.86 
## # ... with 28 more rows
```
…
